# MagicaVoxel @ Ephtracy

# material
mtllib platformSandRoud3.mtl
usemtl palette

# normals
vn -1 0 0
vn 1 0 0
vn 0 0 1
vn 0 0 -1
vn 0 -1 0
vn 0 1 0

# texcoords
vt 0.00195313 0.5
vt 0.0644531 0.5
vt 0.0957031 0.5

# verts
v -18.5 0 62.5
v -18.5 0 -62.5
v -18.5 1 62.5
v -18.5 1 -50.5
v -18.5 1 -55.5
v -18.5 1 -62.5
v -18.5 2 62.5
v -18.5 2 -50.5
v -18.5 2 -55.5
v -18.5 2 -62.5
v 18.5 0 62.5
v 18.5 0 -62.5
v 18.5 1 62.5
v 18.5 1 8.5
v 18.5 1 -0.5
v 18.5 1 -22.5
v 18.5 1 -31.5
v 18.5 1 -62.5
v 18.5 2 62.5
v 18.5 2 8.5
v 18.5 2 -0.5
v 18.5 2 -22.5
v 18.5 2 -31.5
v 18.5 2 -62.5
v -18.5 0 62.5
v -18.5 1 62.5
v -18.5 2 62.5
v 18.5 0 62.5
v 18.5 1 62.5
v 18.5 2 62.5
v -18.5 0 -62.5
v -18.5 1 -62.5
v -18.5 2 -62.5
v 18.5 0 -62.5
v 18.5 1 -62.5
v 18.5 2 -62.5
v -18.5 0 62.5
v 18.5 0 62.5
v -18.5 0 -62.5
v 18.5 0 -62.5
v -18.5 2 62.5
v 18.5 2 62.5
v 2.5 2 61.5
v 9.5 2 61.5
v -14.5 2 60.5
v -9.5 2 60.5
v 0.5 2 60.5
v 2.5 2 60.5
v 9.5 2 60.5
v 11.5 2 60.5
v -15.5 2 59.5
v -14.5 2 59.5
v -9.5 2 59.5
v -8.5 2 59.5
v -0.5 2 59.5
v 0.5 2 59.5
v 11.5 2 59.5
v 12.5 2 59.5
v -16.5 2 58.5
v -15.5 2 58.5
v -8.5 2 58.5
v -7.5 2 58.5
v -1.5 2 58.5
v -0.5 2 58.5
v 12.5 2 58.5
v 13.5 2 58.5
v -17.5 2 57.5
v -16.5 2 57.5
v -7.5 2 57.5
v -6.5 2 57.5
v -2.5 2 57.5
v -1.5 2 57.5
v 13.5 2 57.5
v 14.5 2 57.5
v -12.5 2 55.5
v -11.5 2 55.5
v -3.5 2 55.5
v -2.5 2 55.5
v 14.5 2 55.5
v 15.5 2 55.5
v -12.5 2 54.5
v -11.5 2 54.5
v -17.5 2 52.5
v -16.5 2 52.5
v -7.5 2 52.5
v -6.5 2 52.5
v 5.5 2 52.5
v 6.5 2 52.5
v -16.5 2 51.5
v -15.5 2 51.5
v -8.5 2 51.5
v -7.5 2 51.5
v 5.5 2 51.5
v 6.5 2 51.5
v -15.5 2 50.5
v -14.5 2 50.5
v -9.5 2 50.5
v -8.5 2 50.5
v -14.5 2 49.5
v -9.5 2 49.5
v -3.5 2 48.5
v -2.5 2 48.5
v 14.5 2 48.5
v 15.5 2 48.5
v -2.5 2 46.5
v -1.5 2 46.5
v 13.5 2 46.5
v 14.5 2 46.5
v -1.5 2 45.5
v -0.5 2 45.5
v 12.5 2 45.5
v 13.5 2 45.5
v -0.5 2 44.5
v 0.5 2 44.5
v 11.5 2 44.5
v 12.5 2 44.5
v 0.5 2 43.5
v 2.5 2 43.5
v 9.5 2 43.5
v 11.5 2 43.5
v -7.5 2 42.5
v -0.5 2 42.5
v 2.5 2 42.5
v 9.5 2 42.5
v -9.5 2 41.5
v -7.5 2 41.5
v -0.5 2 41.5
v 1.5 2 41.5
v -10.5 2 40.5
v -9.5 2 40.5
v 1.5 2 40.5
v 2.5 2 40.5
v -11.5 2 39.5
v -10.5 2 39.5
v 2.5 2 39.5
v 3.5 2 39.5
v -12.5 2 38.5
v -11.5 2 38.5
v 3.5 2 38.5
v 4.5 2 38.5
v -13.5 2 37.5
v -12.5 2 37.5
v 4.5 2 37.5
v 5.5 2 37.5
v -14.5 2 35.5
v -13.5 2 35.5
v 5.5 2 35.5
v 6.5 2 35.5
v -4.5 2 32.5
v -3.5 2 32.5
v -4.5 2 31.5
v -3.5 2 31.5
v -14.5 2 28.5
v -13.5 2 28.5
v 5.5 2 28.5
v 6.5 2 28.5
v -13.5 2 26.5
v -12.5 2 26.5
v 4.5 2 26.5
v 5.5 2 26.5
v -12.5 2 25.5
v -11.5 2 25.5
v 3.5 2 25.5
v 4.5 2 25.5
v 6.5 2 25.5
v 11.5 2 25.5
v -11.5 2 24.5
v -10.5 2 24.5
v 2.5 2 24.5
v 3.5 2 24.5
v 5.5 2 24.5
v 6.5 2 24.5
v 11.5 2 24.5
v 12.5 2 24.5
v -10.5 2 23.5
v -9.5 2 23.5
v 1.5 2 23.5
v 2.5 2 23.5
v 4.5 2 23.5
v 5.5 2 23.5
v 12.5 2 23.5
v 13.5 2 23.5
v -9.5 2 22.5
v -7.5 2 22.5
v -0.5 2 22.5
v 1.5 2 22.5
v 3.5 2 22.5
v 4.5 2 22.5
v 13.5 2 22.5
v 14.5 2 22.5
v -7.5 2 21.5
v -0.5 2 21.5
v 8.5 2 20.5
v 9.5 2 20.5
v 8.5 2 19.5
v 9.5 2 19.5
v -8.5 2 17.5
v -3.5 2 17.5
v 3.5 2 17.5
v 4.5 2 17.5
v 13.5 2 17.5
v 14.5 2 17.5
v -9.5 2 16.5
v -8.5 2 16.5
v -3.5 2 16.5
v -2.5 2 16.5
v 4.5 2 16.5
v 5.5 2 16.5
v 12.5 2 16.5
v 13.5 2 16.5
v -10.5 2 15.5
v -9.5 2 15.5
v -2.5 2 15.5
v -1.5 2 15.5
v 5.5 2 15.5
v 6.5 2 15.5
v 11.5 2 15.5
v 12.5 2 15.5
v 6.5 2 14.5
v 11.5 2 14.5
v -6.5 2 13.5
v -5.5 2 13.5
v -6.5 2 12.5
v -5.5 2 12.5
v 1.5 2 12.5
v 4.5 2 12.5
v 0.5 2 11.5
v 1.5 2 11.5
v 4.5 2 11.5
v 5.5 2 11.5
v -10.5 2 10.5
v -9.5 2 10.5
v -2.5 2 10.5
v -1.5 2 10.5
v -0.5 2 10.5
v 0.5 2 10.5
v 5.5 2 10.5
v 6.5 2 10.5
v -9.5 2 9.5
v -8.5 2 9.5
v -3.5 2 9.5
v -2.5 2 9.5
v 2.5 2 9.5
v 3.5 2 9.5
v 12.5 2 9.5
v 17.5 2 9.5
v -8.5 2 8.5
v -3.5 2 8.5
v 2.5 2 8.5
v 3.5 2 8.5
v 11.5 2 8.5
v 12.5 2 8.5
v 17.5 2 8.5
v 18.5 2 8.5
v -0.5 2 7.5
v 0.5 2 7.5
v 5.5 2 7.5
v 6.5 2 7.5
v 10.5 2 7.5
v 11.5 2 7.5
v 0.5 2 6.5
v 1.5 2 6.5
v 4.5 2 6.5
v 5.5 2 6.5
v 9.5 2 6.5
v 10.5 2 6.5
v -12.5 2 5.5
v -7.5 2 5.5
v 1.5 2 5.5
v 4.5 2 5.5
v -13.5 2 4.5
v -12.5 2 4.5
v -7.5 2 4.5
v -6.5 2 4.5
v 14.5 2 4.5
v 15.5 2 4.5
v -14.5 2 3.5
v -13.5 2 3.5
v -6.5 2 3.5
v -5.5 2 3.5
v 14.5 2 3.5
v 15.5 2 3.5
v -15.5 2 2.5
v -14.5 2 2.5
v -5.5 2 2.5
v -4.5 2 2.5
v 9.5 2 1.5
v 10.5 2 1.5
v -10.5 2 0.5
v -9.5 2 0.5
v 10.5 2 0.5
v 11.5 2 0.5
v -10.5 2 -0.5
v -9.5 2 -0.5
v 11.5 2 -0.5
v 12.5 2 -0.5
v 17.5 2 -0.5
v 18.5 2 -0.5
v 1.5 2 -1.5
v 8.5 2 -1.5
v 12.5 2 -1.5
v 17.5 2 -1.5
v -15.5 2 -2.5
v -14.5 2 -2.5
v -5.5 2 -2.5
v -4.5 2 -2.5
v -0.5 2 -2.5
v 1.5 2 -2.5
v 8.5 2 -2.5
v 10.5 2 -2.5
v -14.5 2 -3.5
v -13.5 2 -3.5
v -6.5 2 -3.5
v -5.5 2 -3.5
v -1.5 2 -3.5
v -0.5 2 -3.5
v 10.5 2 -3.5
v 11.5 2 -3.5
v -13.5 2 -4.5
v -12.5 2 -4.5
v -7.5 2 -4.5
v -6.5 2 -4.5
v -2.5 2 -4.5
v -1.5 2 -4.5
v 11.5 2 -4.5
v 12.5 2 -4.5
v -12.5 2 -5.5
v -7.5 2 -5.5
v -3.5 2 -5.5
v -2.5 2 -5.5
v 12.5 2 -5.5
v 13.5 2 -5.5
v -4.5 2 -7.5
v -3.5 2 -7.5
v 13.5 2 -7.5
v 14.5 2 -7.5
v 4.5 2 -10.5
v 5.5 2 -10.5
v 4.5 2 -11.5
v 5.5 2 -11.5
v -4.5 2 -14.5
v -3.5 2 -14.5
v 13.5 2 -14.5
v 14.5 2 -14.5
v -3.5 2 -16.5
v -2.5 2 -16.5
v 12.5 2 -16.5
v 13.5 2 -16.5
v -2.5 2 -17.5
v -1.5 2 -17.5
v 11.5 2 -17.5
v 12.5 2 -17.5
v -1.5 2 -18.5
v -0.5 2 -18.5
v 10.5 2 -18.5
v 11.5 2 -18.5
v -0.5 2 -19.5
v 1.5 2 -19.5
v 8.5 2 -19.5
v 10.5 2 -19.5
v -10.5 2 -20.5
v -5.5 2 -20.5
v 1.5 2 -20.5
v 8.5 2 -20.5
v -11.5 2 -21.5
v -10.5 2 -21.5
v -5.5 2 -21.5
v -4.5 2 -21.5
v 12.5 2 -21.5
v 17.5 2 -21.5
v -12.5 2 -22.5
v -11.5 2 -22.5
v -4.5 2 -22.5
v -3.5 2 -22.5
v 11.5 2 -22.5
v 12.5 2 -22.5
v 17.5 2 -22.5
v 18.5 2 -22.5
v -13.5 2 -23.5
v -12.5 2 -23.5
v -3.5 2 -23.5
v -2.5 2 -23.5
v 1.5 2 -23.5
v 4.5 2 -23.5
v 10.5 2 -23.5
v 11.5 2 -23.5
v 0.5 2 -24.5
v 1.5 2 -24.5
v 4.5 2 -24.5
v 5.5 2 -24.5
v 9.5 2 -24.5
v 10.5 2 -24.5
v -8.5 2 -25.5
v -7.5 2 -25.5
v -0.5 2 -25.5
v 0.5 2 -25.5
v 5.5 2 -25.5
v 6.5 2 -25.5
v -8.5 2 -26.5
v -7.5 2 -26.5
v 2.5 2 -26.5
v 3.5 2 -26.5
v 14.5 2 -26.5
v 15.5 2 -26.5
v 2.5 2 -27.5
v 3.5 2 -27.5
v 14.5 2 -27.5
v 15.5 2 -27.5
v -13.5 2 -28.5
v -12.5 2 -28.5
v -3.5 2 -28.5
v -2.5 2 -28.5
v -0.5 2 -28.5
v 0.5 2 -28.5
v 5.5 2 -28.5
v 6.5 2 -28.5
v -12.5 2 -29.5
v -11.5 2 -29.5
v -4.5 2 -29.5
v -3.5 2 -29.5
v 0.5 2 -29.5
v 1.5 2 -29.5
v 4.5 2 -29.5
v 5.5 2 -29.5
v 9.5 2 -29.5
v 10.5 2 -29.5
v -11.5 2 -30.5
v -10.5 2 -30.5
v -5.5 2 -30.5
v -4.5 2 -30.5
v 1.5 2 -30.5
v 4.5 2 -30.5
v 10.5 2 -30.5
v 11.5 2 -30.5
v -10.5 2 -31.5
v -5.5 2 -31.5
v 11.5 2 -31.5
v 12.5 2 -31.5
v 17.5 2 -31.5
v 18.5 2 -31.5
v 12.5 2 -32.5
v 17.5 2 -32.5
v -0.5 2 -33.5
v 6.5 2 -33.5
v -2.5 2 -34.5
v -0.5 2 -34.5
v 6.5 2 -34.5
v 8.5 2 -34.5
v -3.5 2 -35.5
v -2.5 2 -35.5
v 8.5 2 -35.5
v 9.5 2 -35.5
v -4.5 2 -36.5
v -3.5 2 -36.5
v 9.5 2 -36.5
v 10.5 2 -36.5
v -5.5 2 -37.5
v -4.5 2 -37.5
v 10.5 2 -37.5
v 11.5 2 -37.5
v -6.5 2 -38.5
v -5.5 2 -38.5
v 11.5 2 -38.5
v 12.5 2 -38.5
v -7.5 2 -40.5
v -6.5 2 -40.5
v 12.5 2 -40.5
v 13.5 2 -40.5
v 2.5 2 -43.5
v 3.5 2 -43.5
v 2.5 2 -44.5
v 3.5 2 -44.5
v -15.5 2 -47.5
v -10.5 2 -47.5
v -7.5 2 -47.5
v -6.5 2 -47.5
v 12.5 2 -47.5
v 13.5 2 -47.5
v -16.5 2 -48.5
v -15.5 2 -48.5
v -10.5 2 -48.5
v -9.5 2 -48.5
v -17.5 2 -49.5
v -16.5 2 -49.5
v -9.5 2 -49.5
v -8.5 2 -49.5
v -6.5 2 -49.5
v -5.5 2 -49.5
v 11.5 2 -49.5
v 12.5 2 -49.5
v -18.5 2 -50.5
v -17.5 2 -50.5
v -8.5 2 -50.5
v -7.5 2 -50.5
v -5.5 2 -50.5
v -4.5 2 -50.5
v 10.5 2 -50.5
v 11.5 2 -50.5
v -4.5 2 -51.5
v -3.5 2 -51.5
v 9.5 2 -51.5
v 10.5 2 -51.5
v -13.5 2 -52.5
v -12.5 2 -52.5
v -3.5 2 -52.5
v -2.5 2 -52.5
v 8.5 2 -52.5
v 9.5 2 -52.5
v -13.5 2 -53.5
v -12.5 2 -53.5
v -2.5 2 -53.5
v -0.5 2 -53.5
v 6.5 2 -53.5
v 8.5 2 -53.5
v -0.5 2 -54.5
v 6.5 2 -54.5
v -18.5 2 -55.5
v -17.5 2 -55.5
v -8.5 2 -55.5
v -7.5 2 -55.5
v -17.5 2 -56.5
v -16.5 2 -56.5
v -9.5 2 -56.5
v -8.5 2 -56.5
v -16.5 2 -57.5
v -15.5 2 -57.5
v -10.5 2 -57.5
v -9.5 2 -57.5
v -15.5 2 -58.5
v -10.5 2 -58.5
v -18.5 2 -62.5
v 18.5 2 -62.5

# faces
f 3/1/1 2/1/1 1/1/1
f 4/1/1 2/1/1 3/1/1
f 5/1/1 2/1/1 4/1/1
f 6/1/1 2/1/1 5/1/1
f 7/2/1 4/2/1 3/2/1
f 8/3/1 5/3/1 4/3/1
f 8/2/1 4/2/1 7/2/1
f 9/2/1 6/2/1 5/2/1
f 9/3/1 5/3/1 8/3/1
f 10/2/1 6/2/1 9/2/1
f 11/1/2 12/1/2 13/1/2
f 13/1/2 12/1/2 14/1/2
f 14/1/2 12/1/2 15/1/2
f 15/1/2 12/1/2 16/1/2
f 16/1/2 12/1/2 17/1/2
f 17/1/2 12/1/2 18/1/2
f 13/2/2 14/2/2 19/2/2
f 14/3/2 15/3/2 20/3/2
f 19/2/2 14/2/2 20/2/2
f 15/2/2 16/2/2 21/2/2
f 20/3/2 15/3/2 21/3/2
f 16/3/2 17/3/2 22/3/2
f 21/2/2 16/2/2 22/2/2
f 17/2/2 18/2/2 23/2/2
f 22/3/2 17/3/2 23/3/2
f 23/2/2 18/2/2 24/2/2
f 28/1/3 26/1/3 25/1/3
f 29/2/3 27/2/3 26/2/3
f 29/1/3 26/1/3 28/1/3
f 30/2/3 27/2/3 29/2/3
f 31/1/4 32/1/4 34/1/4
f 32/2/4 33/2/4 35/2/4
f 34/1/4 32/1/4 35/1/4
f 35/2/4 33/2/4 36/2/4
f 39/1/5 38/1/5 37/1/5
f 40/1/5 38/1/5 39/1/5
f 41/2/6 42/2/6 43/2/6
f 43/2/6 42/2/6 44/2/6
f 41/2/6 43/2/6 45/2/6
f 45/2/6 43/2/6 46/2/6
f 46/2/6 43/2/6 47/2/6
f 43/3/6 44/3/6 48/3/6
f 47/2/6 43/2/6 48/2/6
f 44/2/6 42/2/6 49/2/6
f 48/3/6 44/3/6 49/3/6
f 49/2/6 42/2/6 50/2/6
f 41/2/6 45/2/6 51/2/6
f 45/3/6 46/3/6 52/3/6
f 51/2/6 45/2/6 52/2/6
f 46/2/6 47/2/6 53/2/6
f 52/3/6 46/3/6 53/3/6
f 53/2/6 47/2/6 54/2/6
f 54/2/6 47/2/6 55/2/6
f 47/3/6 48/3/6 56/3/6
f 55/2/6 47/2/6 56/2/6
f 48/3/6 49/3/6 56/3/6
f 49/3/6 50/3/6 56/3/6
f 50/2/6 42/2/6 57/2/6
f 56/3/6 50/3/6 57/3/6
f 57/2/6 42/2/6 58/2/6
f 41/2/6 51/2/6 59/2/6
f 51/3/6 52/3/6 60/3/6
f 59/2/6 51/2/6 60/2/6
f 53/3/6 54/3/6 60/3/6
f 52/3/6 53/3/6 60/3/6
f 54/2/6 55/2/6 61/2/6
f 60/3/6 54/3/6 61/3/6
f 61/2/6 55/2/6 62/2/6
f 62/2/6 55/2/6 63/2/6
f 55/3/6 56/3/6 64/3/6
f 63/2/6 55/2/6 64/2/6
f 57/3/6 58/3/6 64/3/6
f 56/3/6 57/3/6 64/3/6
f 58/2/6 42/2/6 65/2/6
f 64/3/6 58/3/6 65/3/6
f 65/2/6 42/2/6 66/2/6
f 41/2/6 59/2/6 67/2/6
f 59/3/6 60/3/6 68/3/6
f 67/2/6 59/2/6 68/2/6
f 61/3/6 62/3/6 68/3/6
f 60/3/6 61/3/6 68/3/6
f 62/2/6 63/2/6 69/2/6
f 68/3/6 62/3/6 69/3/6
f 69/2/6 63/2/6 70/2/6
f 70/2/6 63/2/6 71/2/6
f 63/3/6 64/3/6 72/3/6
f 71/2/6 63/2/6 72/2/6
f 65/3/6 66/3/6 72/3/6
f 64/3/6 65/3/6 72/3/6
f 66/2/6 42/2/6 73/2/6
f 72/3/6 66/3/6 73/3/6
f 73/2/6 42/2/6 74/2/6
f 67/3/6 68/3/6 75/3/6
f 69/3/6 70/3/6 75/3/6
f 68/3/6 69/3/6 75/3/6
f 75/3/6 70/3/6 76/3/6
f 70/2/6 71/2/6 77/2/6
f 71/3/6 72/3/6 78/3/6
f 77/2/6 71/2/6 78/2/6
f 73/3/6 74/3/6 78/3/6
f 72/3/6 73/3/6 78/3/6
f 74/2/6 42/2/6 79/2/6
f 78/3/6 74/3/6 79/3/6
f 79/2/6 42/2/6 80/2/6
f 75/2/6 76/2/6 81/2/6
f 67/3/6 75/3/6 81/3/6
f 76/3/6 70/3/6 82/3/6
f 81/2/6 76/2/6 82/2/6
f 41/2/6 67/2/6 83/2/6
f 67/3/6 81/3/6 83/3/6
f 81/3/6 82/3/6 83/3/6
f 83/3/6 82/3/6 84/3/6
f 82/3/6 70/3/6 85/3/6
f 84/3/6 82/3/6 85/3/6
f 70/2/6 77/2/6 86/2/6
f 85/3/6 70/3/6 86/3/6
f 77/3/6 78/3/6 87/3/6
f 78/3/6 79/3/6 87/3/6
f 79/3/6 80/3/6 87/3/6
f 87/3/6 80/3/6 88/3/6
f 83/2/6 84/2/6 89/2/6
f 84/3/6 85/3/6 89/3/6
f 89/3/6 85/3/6 90/3/6
f 90/3/6 85/3/6 91/3/6
f 85/2/6 86/2/6 92/2/6
f 91/3/6 85/3/6 92/3/6
f 87/2/6 88/2/6 93/2/6
f 77/3/6 87/3/6 93/3/6
f 88/3/6 80/3/6 94/3/6
f 93/2/6 88/2/6 94/2/6
f 90/3/6 91/3/6 95/3/6
f 89/2/6 90/2/6 95/2/6
f 95/3/6 91/3/6 96/3/6
f 96/3/6 91/3/6 97/3/6
f 91/2/6 92/2/6 98/2/6
f 97/3/6 91/3/6 98/3/6
f 96/3/6 97/3/6 99/3/6
f 95/2/6 96/2/6 99/2/6
f 97/2/6 98/2/6 100/2/6
f 99/3/6 97/3/6 100/3/6
f 77/3/6 93/3/6 101/3/6
f 100/2/6 98/2/6 101/2/6
f 99/2/6 100/2/6 101/2/6
f 92/2/6 86/2/6 101/2/6
f 86/2/6 77/2/6 101/2/6
f 93/3/6 94/3/6 101/3/6
f 98/2/6 92/2/6 101/2/6
f 101/3/6 94/3/6 102/3/6
f 94/3/6 80/3/6 103/3/6
f 102/3/6 94/3/6 103/3/6
f 80/2/6 42/2/6 104/2/6
f 103/3/6 80/3/6 104/3/6
f 101/2/6 102/2/6 105/2/6
f 102/3/6 103/3/6 105/3/6
f 105/3/6 103/3/6 106/3/6
f 106/3/6 103/3/6 107/3/6
f 103/2/6 104/2/6 108/2/6
f 107/3/6 103/3/6 108/3/6
f 106/3/6 107/3/6 109/3/6
f 105/2/6 106/2/6 109/2/6
f 109/3/6 107/3/6 110/3/6
f 110/3/6 107/3/6 111/3/6
f 107/2/6 108/2/6 112/2/6
f 111/3/6 107/3/6 112/3/6
f 110/3/6 111/3/6 113/3/6
f 109/2/6 110/2/6 113/2/6
f 113/3/6 111/3/6 114/3/6
f 114/3/6 111/3/6 115/3/6
f 111/2/6 112/2/6 116/2/6
f 115/3/6 111/3/6 116/3/6
f 114/3/6 115/3/6 117/3/6
f 113/2/6 114/2/6 117/2/6
f 117/3/6 115/3/6 118/3/6
f 118/3/6 115/3/6 119/3/6
f 115/2/6 116/2/6 120/2/6
f 119/3/6 115/3/6 120/3/6
f 99/2/6 101/2/6 121/2/6
f 101/2/6 105/2/6 121/2/6
f 105/2/6 109/2/6 121/2/6
f 117/2/6 118/2/6 121/2/6
f 113/2/6 117/2/6 121/2/6
f 109/2/6 113/2/6 121/2/6
f 121/2/6 118/2/6 122/2/6
f 118/3/6 119/3/6 123/3/6
f 122/2/6 118/2/6 123/2/6
f 119/2/6 120/2/6 124/2/6
f 123/3/6 119/3/6 124/3/6
f 99/2/6 121/2/6 125/2/6
f 121/3/6 122/3/6 126/3/6
f 125/2/6 121/2/6 126/2/6
f 122/2/6 123/2/6 127/2/6
f 126/3/6 122/3/6 127/3/6
f 123/2/6 124/2/6 127/2/6
f 127/2/6 124/2/6 128/2/6
f 99/2/6 125/2/6 129/2/6
f 125/3/6 126/3/6 130/3/6
f 129/2/6 125/2/6 130/2/6
f 126/3/6 127/3/6 130/3/6
f 127/3/6 128/3/6 130/3/6
f 128/2/6 124/2/6 131/2/6
f 130/3/6 128/3/6 131/3/6
f 131/2/6 124/2/6 132/2/6
f 99/2/6 129/2/6 133/2/6
f 129/3/6 130/3/6 134/3/6
f 133/2/6 129/2/6 134/2/6
f 130/3/6 131/3/6 134/3/6
f 131/3/6 132/3/6 134/3/6
f 132/2/6 124/2/6 135/2/6
f 134/3/6 132/3/6 135/3/6
f 135/2/6 124/2/6 136/2/6
f 99/2/6 133/2/6 137/2/6
f 133/3/6 134/3/6 138/3/6
f 137/2/6 133/2/6 138/2/6
f 134/3/6 135/3/6 138/3/6
f 135/3/6 136/3/6 138/3/6
f 136/2/6 124/2/6 139/2/6
f 138/3/6 136/3/6 139/3/6
f 139/2/6 124/2/6 140/2/6
f 99/2/6 137/2/6 141/2/6
f 137/3/6 138/3/6 142/3/6
f 141/2/6 137/2/6 142/2/6
f 138/3/6 139/3/6 142/3/6
f 139/3/6 140/3/6 142/3/6
f 140/2/6 124/2/6 143/2/6
f 142/3/6 140/3/6 143/3/6
f 143/2/6 124/2/6 144/2/6
f 95/2/6 99/2/6 145/2/6
f 99/2/6 141/2/6 145/2/6
f 141/3/6 142/3/6 146/3/6
f 145/2/6 141/2/6 146/2/6
f 143/3/6 144/3/6 146/3/6
f 142/3/6 143/3/6 146/3/6
f 144/2/6 124/2/6 147/2/6
f 146/3/6 144/3/6 147/3/6
f 147/2/6 124/2/6 148/2/6
f 145/3/6 146/3/6 149/3/6
f 146/3/6 147/3/6 149/3/6
f 147/3/6 148/3/6 149/3/6
f 149/3/6 148/3/6 150/3/6
f 145/3/6 149/3/6 151/3/6
f 149/2/6 150/2/6 151/2/6
f 150/3/6 148/3/6 152/3/6
f 151/2/6 150/2/6 152/2/6
f 95/2/6 145/2/6 153/2/6
f 145/3/6 151/3/6 153/3/6
f 151/3/6 152/3/6 153/3/6
f 153/3/6 152/3/6 154/3/6
f 152/3/6 148/3/6 155/3/6
f 154/3/6 152/3/6 155/3/6
f 148/2/6 124/2/6 156/2/6
f 155/3/6 148/3/6 156/3/6
f 154/3/6 155/3/6 157/3/6
f 153/2/6 154/2/6 157/2/6
f 157/3/6 155/3/6 158/3/6
f 158/3/6 155/3/6 159/3/6
f 155/2/6 156/2/6 160/2/6
f 159/3/6 155/3/6 160/3/6
f 158/3/6 159/3/6 161/3/6
f 157/2/6 158/2/6 161/2/6
f 161/3/6 159/3/6 162/3/6
f 162/3/6 159/3/6 163/3/6
f 159/2/6 160/2/6 164/2/6
f 163/3/6 159/3/6 164/3/6
f 156/2/6 124/2/6 165/2/6
f 164/2/6 160/2/6 165/2/6
f 160/2/6 156/2/6 165/2/6
f 120/2/6 116/2/6 166/2/6
f 165/2/6 124/2/6 166/2/6
f 124/2/6 120/2/6 166/2/6
f 161/2/6 162/2/6 167/2/6
f 162/3/6 163/3/6 167/3/6
f 167/3/6 163/3/6 168/3/6
f 168/3/6 163/3/6 169/3/6
f 163/2/6 164/2/6 170/2/6
f 169/3/6 163/3/6 170/3/6
f 164/2/6 165/2/6 170/2/6
f 170/2/6 165/2/6 171/2/6
f 165/3/6 166/3/6 172/3/6
f 171/2/6 165/2/6 172/2/6
f 166/2/6 116/2/6 173/2/6
f 172/3/6 166/3/6 173/3/6
f 116/2/6 112/2/6 174/2/6
f 173/2/6 116/2/6 174/2/6
f 168/3/6 169/3/6 175/3/6
f 167/2/6 168/2/6 175/2/6
f 175/3/6 169/3/6 176/3/6
f 176/3/6 169/3/6 177/3/6
f 170/2/6 171/2/6 178/2/6
f 177/3/6 169/3/6 178/3/6
f 169/2/6 170/2/6 178/2/6
f 178/2/6 171/2/6 179/2/6
f 173/3/6 174/3/6 180/3/6
f 179/2/6 171/2/6 180/2/6
f 171/3/6 172/3/6 180/3/6
f 172/3/6 173/3/6 180/3/6
f 174/2/6 112/2/6 181/2/6
f 180/3/6 174/3/6 181/3/6
f 112/2/6 108/2/6 182/2/6
f 181/2/6 112/2/6 182/2/6
f 176/3/6 177/3/6 183/3/6
f 175/2/6 176/2/6 183/2/6
f 183/3/6 177/3/6 184/3/6
f 184/3/6 177/3/6 185/3/6
f 178/2/6 179/2/6 186/2/6
f 185/3/6 177/3/6 186/3/6
f 177/2/6 178/2/6 186/2/6
f 186/2/6 179/2/6 187/2/6
f 179/3/6 180/3/6 188/3/6
f 187/2/6 179/2/6 188/2/6
f 180/3/6 181/3/6 188/3/6
f 181/3/6 182/3/6 188/3/6
f 182/2/6 108/2/6 189/2/6
f 188/3/6 182/3/6 189/3/6
f 108/2/6 104/2/6 190/2/6
f 189/2/6 108/2/6 190/2/6
f 184/3/6 185/3/6 191/3/6
f 183/2/6 184/2/6 191/2/6
f 186/2/6 187/2/6 192/2/6
f 191/3/6 185/3/6 192/3/6
f 185/2/6 186/2/6 192/2/6
f 188/3/6 189/3/6 193/3/6
f 189/3/6 190/3/6 193/3/6
f 187/3/6 188/3/6 193/3/6
f 193/3/6 190/3/6 194/3/6
f 187/3/6 193/3/6 195/3/6
f 193/2/6 194/2/6 195/2/6
f 194/3/6 190/3/6 196/3/6
f 195/2/6 194/2/6 196/2/6
f 183/2/6 191/2/6 197/2/6
f 191/2/6 192/2/6 197/2/6
f 197/2/6 192/2/6 198/2/6
f 192/2/6 187/2/6 199/2/6
f 198/2/6 192/2/6 199/2/6
f 195/3/6 196/3/6 199/3/6
f 187/3/6 195/3/6 199/3/6
f 199/3/6 196/3/6 200/3/6
f 196/3/6 190/3/6 201/3/6
f 200/3/6 196/3/6 201/3/6
f 190/2/6 104/2/6 202/2/6
f 201/3/6 190/3/6 202/3/6
f 183/2/6 197/2/6 203/2/6
f 175/2/6 183/2/6 203/2/6
f 197/3/6 198/3/6 204/3/6
f 203/2/6 197/2/6 204/2/6
f 199/2/6 200/2/6 205/2/6
f 204/3/6 198/3/6 205/3/6
f 198/2/6 199/2/6 205/2/6
f 205/2/6 200/2/6 206/2/6
f 200/3/6 201/3/6 207/3/6
f 206/2/6 200/2/6 207/2/6
f 207/3/6 201/3/6 208/3/6
f 208/3/6 201/3/6 209/3/6
f 201/2/6 202/2/6 210/2/6
f 209/3/6 201/3/6 210/3/6
f 175/2/6 203/2/6 211/2/6
f 167/2/6 175/2/6 211/2/6
f 203/3/6 204/3/6 212/3/6
f 211/2/6 203/2/6 212/2/6
f 205/3/6 206/3/6 212/3/6
f 204/3/6 205/3/6 212/3/6
f 207/2/6 208/2/6 213/2/6
f 212/3/6 206/3/6 213/3/6
f 206/2/6 207/2/6 213/2/6
f 213/2/6 208/2/6 214/2/6
f 208/3/6 209/3/6 215/3/6
f 214/2/6 208/2/6 215/2/6
f 215/3/6 209/3/6 216/3/6
f 216/3/6 209/3/6 217/3/6
f 209/2/6 210/2/6 218/2/6
f 217/3/6 209/3/6 218/3/6
f 216/3/6 217/3/6 219/3/6
f 214/2/6 215/2/6 219/2/6
f 215/2/6 216/2/6 219/2/6
f 217/2/6 218/2/6 220/2/6
f 219/3/6 217/3/6 220/3/6
f 211/3/6 212/3/6 221/3/6
f 213/3/6 214/3/6 221/3/6
f 212/3/6 213/3/6 221/3/6
f 221/3/6 214/3/6 222/3/6
f 211/3/6 221/3/6 223/3/6
f 221/2/6 222/2/6 223/2/6
f 222/3/6 214/3/6 224/3/6
f 223/2/6 222/2/6 224/2/6
f 219/2/6 220/2/6 225/2/6
f 214/2/6 219/2/6 225/2/6
f 225/2/6 220/2/6 226/2/6
f 214/2/6 225/2/6 227/2/6
f 225/3/6 226/3/6 228/3/6
f 227/2/6 225/2/6 228/2/6
f 226/2/6 220/2/6 229/2/6
f 228/3/6 226/3/6 229/3/6
f 229/2/6 220/2/6 230/2/6
f 167/2/6 211/2/6 231/2/6
f 223/3/6 224/3/6 231/3/6
f 211/3/6 223/3/6 231/3/6
f 231/3/6 224/3/6 232/3/6
f 224/3/6 214/3/6 233/3/6
f 232/3/6 224/3/6 233/3/6
f 214/2/6 227/2/6 234/2/6
f 233/3/6 214/3/6 234/3/6
f 234/2/6 227/2/6 235/2/6
f 229/3/6 230/3/6 236/3/6
f 235/2/6 227/2/6 236/2/6
f 228/3/6 229/3/6 236/3/6
f 227/3/6 228/3/6 236/3/6
f 230/2/6 220/2/6 237/2/6
f 236/3/6 230/3/6 237/3/6
f 237/2/6 220/2/6 238/2/6
f 231/2/6 232/2/6 239/2/6
f 232/3/6 233/3/6 239/3/6
f 239/3/6 233/3/6 240/3/6
f 240/3/6 233/3/6 241/3/6
f 234/2/6 235/2/6 242/2/6
f 241/3/6 233/3/6 242/3/6
f 233/2/6 234/2/6 242/2/6
f 235/3/6 236/3/6 243/3/6
f 237/3/6 238/3/6 243/3/6
f 236/3/6 237/3/6 243/3/6
f 243/3/6 238/3/6 244/3/6
f 220/2/6 218/2/6 245/2/6
f 238/2/6 220/2/6 245/2/6
f 218/2/6 210/2/6 245/2/6
f 104/2/6 42/2/6 246/2/6
f 245/2/6 210/2/6 246/2/6
f 210/2/6 202/2/6 246/2/6
f 202/2/6 104/2/6 246/2/6
f 240/3/6 241/3/6 247/3/6
f 239/2/6 240/2/6 247/2/6
f 241/2/6 242/2/6 248/2/6
f 247/3/6 241/3/6 248/3/6
f 243/2/6 244/2/6 249/2/6
f 235/3/6 243/3/6 249/3/6
f 244/3/6 238/3/6 250/3/6
f 249/2/6 244/2/6 250/2/6
f 238/2/6 245/2/6 251/2/6
f 245/3/6 246/3/6 252/3/6
f 251/2/6 245/2/6 252/2/6
f 246/2/6 42/2/6 253/2/6
f 252/3/6 246/3/6 253/3/6
f 253/2/6 42/2/6 254/2/6
f 242/2/6 235/2/6 255/2/6
f 235/3/6 249/3/6 255/3/6
f 248/2/6 242/2/6 255/2/6
f 247/2/6 248/2/6 255/2/6
f 249/3/6 250/3/6 255/3/6
f 255/3/6 250/3/6 256/3/6
f 250/3/6 238/3/6 257/3/6
f 256/3/6 250/3/6 257/3/6
f 238/2/6 251/2/6 258/2/6
f 257/3/6 238/3/6 258/3/6
f 258/2/6 251/2/6 259/2/6
f 253/3/6 254/3/6 260/3/6
f 259/2/6 251/2/6 260/2/6
f 252/3/6 253/3/6 260/3/6
f 251/3/6 252/3/6 260/3/6
f 255/2/6 256/2/6 261/2/6
f 256/3/6 257/3/6 261/3/6
f 261/3/6 257/3/6 262/3/6
f 262/3/6 257/3/6 263/3/6
f 258/2/6 259/2/6 264/2/6
f 263/3/6 257/3/6 264/3/6
f 257/2/6 258/2/6 264/2/6
f 264/2/6 259/2/6 265/2/6
f 259/3/6 260/3/6 266/3/6
f 265/2/6 259/2/6 266/2/6
f 231/2/6 239/2/6 267/2/6
f 239/2/6 247/2/6 267/2/6
f 261/2/6 262/2/6 267/2/6
f 157/2/6 161/2/6 267/2/6
f 255/2/6 261/2/6 267/2/6
f 167/2/6 231/2/6 267/2/6
f 247/2/6 255/2/6 267/2/6
f 161/2/6 167/2/6 267/2/6
f 267/2/6 262/2/6 268/2/6
f 262/3/6 263/3/6 269/3/6
f 268/2/6 262/2/6 269/2/6
f 263/2/6 264/2/6 270/2/6
f 269/3/6 263/3/6 270/3/6
f 264/2/6 265/2/6 270/2/6
f 157/2/6 267/2/6 271/2/6
f 153/2/6 157/2/6 271/2/6
f 267/3/6 268/3/6 272/3/6
f 271/2/6 267/2/6 272/2/6
f 268/2/6 269/2/6 273/2/6
f 272/3/6 268/3/6 273/3/6
f 269/2/6 270/2/6 273/2/6
f 273/2/6 270/2/6 274/2/6
f 260/3/6 254/3/6 275/3/6
f 266/3/6 260/3/6 275/3/6
f 265/3/6 266/3/6 275/3/6
f 275/3/6 254/3/6 276/3/6
f 153/2/6 271/2/6 277/2/6
f 95/2/6 153/2/6 277/2/6
f 273/3/6 274/3/6 278/3/6
f 277/2/6 271/2/6 278/2/6
f 272/3/6 273/3/6 278/3/6
f 271/3/6 272/3/6 278/3/6
f 274/2/6 270/2/6 279/2/6
f 278/3/6 274/3/6 279/3/6
f 279/2/6 270/2/6 280/2/6
f 265/3/6 275/3/6 281/3/6
f 275/2/6 276/2/6 281/2/6
f 276/3/6 254/3/6 282/3/6
f 281/2/6 276/2/6 282/2/6
f 89/2/6 95/2/6 283/2/6
f 95/2/6 277/2/6 283/2/6
f 277/3/6 278/3/6 284/3/6
f 283/2/6 277/2/6 284/2/6
f 279/3/6 280/3/6 284/3/6
f 278/3/6 279/3/6 284/3/6
f 280/2/6 270/2/6 285/2/6
f 284/3/6 280/3/6 285/3/6
f 285/2/6 270/2/6 286/2/6
f 281/3/6 282/3/6 287/3/6
f 286/2/6 270/2/6 287/2/6
f 265/3/6 281/3/6 287/3/6
f 270/2/6 265/2/6 287/2/6
f 287/3/6 282/3/6 288/3/6
f 285/3/6 286/3/6 289/3/6
f 284/3/6 285/3/6 289/3/6
f 283/3/6 284/3/6 289/3/6
f 289/3/6 286/3/6 290/3/6
f 288/3/6 282/3/6 291/3/6
f 287/2/6 288/2/6 291/2/6
f 291/3/6 282/3/6 292/3/6
f 289/2/6 290/2/6 293/2/6
f 283/3/6 289/3/6 293/3/6
f 290/3/6 286/3/6 294/3/6
f 293/2/6 290/2/6 294/2/6
f 292/3/6 282/3/6 295/3/6
f 291/2/6 292/2/6 295/2/6
f 295/3/6 282/3/6 296/3/6
f 282/3/6 254/3/6 297/3/6
f 296/3/6 282/3/6 297/3/6
f 297/3/6 254/3/6 298/3/6
f 295/2/6 296/2/6 299/2/6
f 286/2/6 287/2/6 299/2/6
f 287/2/6 291/2/6 299/2/6
f 291/2/6 295/2/6 299/2/6
f 299/2/6 296/2/6 300/2/6
f 296/3/6 297/3/6 301/3/6
f 300/2/6 296/2/6 301/2/6
f 297/2/6 298/2/6 302/2/6
f 301/3/6 297/3/6 302/3/6
f 89/2/6 283/2/6 303/2/6
f 283/3/6 293/3/6 303/3/6
f 293/3/6 294/3/6 303/3/6
f 303/3/6 294/3/6 304/3/6
f 294/3/6 286/3/6 305/3/6
f 304/3/6 294/3/6 305/3/6
f 286/2/6 299/2/6 306/2/6
f 305/3/6 286/3/6 306/3/6
f 306/2/6 299/2/6 307/2/6
f 299/3/6 300/3/6 308/3/6
f 307/2/6 299/2/6 308/2/6
f 301/2/6 302/2/6 309/2/6
f 308/3/6 300/3/6 309/3/6
f 300/2/6 301/2/6 309/2/6
f 309/2/6 302/2/6 310/2/6
f 303/2/6 304/2/6 311/2/6
f 304/3/6 305/3/6 311/3/6
f 311/3/6 305/3/6 312/3/6
f 312/3/6 305/3/6 313/3/6
f 305/2/6 306/2/6 314/2/6
f 313/3/6 305/3/6 314/3/6
f 306/2/6 307/2/6 314/2/6
f 314/2/6 307/2/6 315/2/6
f 307/3/6 308/3/6 316/3/6
f 315/2/6 307/2/6 316/2/6
f 309/3/6 310/3/6 316/3/6
f 308/3/6 309/3/6 316/3/6
f 310/2/6 302/2/6 317/2/6
f 316/3/6 310/3/6 317/3/6
f 317/2/6 302/2/6 318/2/6
f 312/3/6 313/3/6 319/3/6
f 311/2/6 312/2/6 319/2/6
f 319/3/6 313/3/6 320/3/6
f 320/3/6 313/3/6 321/3/6
f 314/2/6 315/2/6 322/2/6
f 321/3/6 313/3/6 322/3/6
f 313/2/6 314/2/6 322/2/6
f 322/2/6 315/2/6 323/2/6
f 315/3/6 316/3/6 324/3/6
f 323/2/6 315/2/6 324/2/6
f 317/3/6 318/3/6 324/3/6
f 316/3/6 317/3/6 324/3/6
f 318/2/6 302/2/6 325/2/6
f 324/3/6 318/3/6 325/3/6
f 325/2/6 302/2/6 326/2/6
f 320/3/6 321/3/6 327/3/6
f 319/2/6 320/2/6 327/2/6
f 322/2/6 323/2/6 328/2/6
f 327/3/6 321/3/6 328/3/6
f 321/2/6 322/2/6 328/2/6
f 328/2/6 323/2/6 329/2/6
f 323/3/6 324/3/6 330/3/6
f 329/2/6 323/2/6 330/2/6
f 325/3/6 326/3/6 330/3/6
f 324/3/6 325/3/6 330/3/6
f 326/2/6 302/2/6 331/2/6
f 330/3/6 326/3/6 331/3/6
f 331/2/6 302/2/6 332/2/6
f 328/2/6 329/2/6 333/2/6
f 327/2/6 328/2/6 333/2/6
f 329/3/6 330/3/6 334/3/6
f 333/2/6 329/2/6 334/2/6
f 331/3/6 332/3/6 334/3/6
f 330/3/6 331/3/6 334/3/6
f 332/2/6 302/2/6 335/2/6
f 334/3/6 332/3/6 335/3/6
f 335/2/6 302/2/6 336/2/6
f 333/3/6 334/3/6 337/3/6
f 334/3/6 335/3/6 337/3/6
f 335/3/6 336/3/6 337/3/6
f 337/3/6 336/3/6 338/3/6
f 333/3/6 337/3/6 339/3/6
f 337/2/6 338/2/6 339/2/6
f 338/3/6 336/3/6 340/3/6
f 339/2/6 338/2/6 340/2/6
f 327/2/6 333/2/6 341/2/6
f 333/3/6 339/3/6 341/3/6
f 339/3/6 340/3/6 341/3/6
f 341/3/6 340/3/6 342/3/6
f 340/3/6 336/3/6 343/3/6
f 342/3/6 340/3/6 343/3/6
f 336/2/6 302/2/6 344/2/6
f 343/3/6 336/3/6 344/3/6
f 341/2/6 342/2/6 345/2/6
f 342/3/6 343/3/6 345/3/6
f 345/3/6 343/3/6 346/3/6
f 346/3/6 343/3/6 347/3/6
f 343/2/6 344/2/6 348/2/6
f 347/3/6 343/3/6 348/3/6
f 346/3/6 347/3/6 349/3/6
f 345/2/6 346/2/6 349/2/6
f 349/3/6 347/3/6 350/3/6
f 350/3/6 347/3/6 351/3/6
f 347/2/6 348/2/6 352/2/6
f 351/3/6 347/3/6 352/3/6
f 350/3/6 351/3/6 353/3/6
f 349/2/6 350/2/6 353/2/6
f 353/3/6 351/3/6 354/3/6
f 354/3/6 351/3/6 355/3/6
f 351/2/6 352/2/6 356/2/6
f 355/3/6 351/3/6 356/3/6
f 354/3/6 355/3/6 357/3/6
f 353/2/6 354/2/6 357/2/6
f 357/3/6 355/3/6 358/3/6
f 358/3/6 355/3/6 359/3/6
f 355/2/6 356/2/6 360/2/6
f 359/3/6 355/3/6 360/3/6
f 327/2/6 341/2/6 361/2/6
f 341/2/6 345/2/6 361/2/6
f 345/2/6 349/2/6 361/2/6
f 357/2/6 358/2/6 361/2/6
f 353/2/6 357/2/6 361/2/6
f 349/2/6 353/2/6 361/2/6
f 361/2/6 358/2/6 362/2/6
f 358/3/6 359/3/6 363/3/6
f 362/2/6 358/2/6 363/2/6
f 359/2/6 360/2/6 364/2/6
f 363/3/6 359/3/6 364/3/6
f 327/2/6 361/2/6 365/2/6
f 361/3/6 362/3/6 366/3/6
f 365/2/6 361/2/6 366/2/6
f 362/2/6 363/2/6 367/2/6
f 366/3/6 362/3/6 367/3/6
f 363/2/6 364/2/6 367/2/6
f 367/2/6 364/2/6 368/2/6
f 360/2/6 356/2/6 369/2/6
f 368/2/6 364/2/6 369/2/6
f 352/2/6 348/2/6 369/2/6
f 356/2/6 352/2/6 369/2/6
f 364/2/6 360/2/6 369/2/6
f 302/2/6 298/2/6 370/2/6
f 369/2/6 348/2/6 370/2/6
f 344/2/6 302/2/6 370/2/6
f 348/2/6 344/2/6 370/2/6
f 327/2/6 365/2/6 371/2/6
f 319/2/6 327/2/6 371/2/6
f 366/3/6 367/3/6 372/3/6
f 371/2/6 365/2/6 372/2/6
f 367/3/6 368/3/6 372/3/6
f 365/3/6 366/3/6 372/3/6
f 368/2/6 369/2/6 373/2/6
f 372/3/6 368/3/6 373/3/6
f 373/2/6 369/2/6 374/2/6
f 374/2/6 369/2/6 375/2/6
f 369/3/6 370/3/6 376/3/6
f 375/2/6 369/2/6 376/2/6
f 370/2/6 298/2/6 377/2/6
f 376/3/6 370/3/6 377/3/6
f 377/2/6 298/2/6 378/2/6
f 319/2/6 371/2/6 379/2/6
f 311/2/6 319/2/6 379/2/6
f 371/3/6 372/3/6 380/3/6
f 379/2/6 371/2/6 380/2/6
f 372/3/6 373/3/6 380/3/6
f 373/3/6 374/3/6 380/3/6
f 374/2/6 375/2/6 381/2/6
f 380/3/6 374/3/6 381/3/6
f 381/2/6 375/2/6 382/2/6
f 382/2/6 375/2/6 383/2/6
f 383/2/6 375/2/6 384/2/6
f 384/2/6 375/2/6 385/2/6
f 375/3/6 376/3/6 386/3/6
f 385/2/6 375/2/6 386/2/6
f 377/3/6 378/3/6 386/3/6
f 376/3/6 377/3/6 386/3/6
f 382/2/6 383/2/6 387/2/6
f 383/3/6 384/3/6 388/3/6
f 387/2/6 383/2/6 388/2/6
f 384/2/6 385/2/6 389/2/6
f 388/3/6 384/3/6 389/3/6
f 389/2/6 385/2/6 390/2/6
f 390/2/6 385/2/6 391/2/6
f 385/3/6 386/3/6 392/3/6
f 391/2/6 385/2/6 392/2/6
f 379/3/6 380/3/6 393/3/6
f 380/3/6 381/3/6 393/3/6
f 381/3/6 382/3/6 393/3/6
f 393/3/6 382/3/6 394/3/6
f 382/2/6 387/2/6 395/2/6
f 387/3/6 388/3/6 396/3/6
f 395/2/6 387/2/6 396/2/6
f 389/3/6 390/3/6 396/3/6
f 388/3/6 389/3/6 396/3/6
f 390/2/6 391/2/6 397/2/6
f 396/3/6 390/3/6 397/3/6
f 397/2/6 391/2/6 398/2/6
f 393/2/6 394/2/6 399/2/6
f 379/3/6 393/3/6 399/3/6
f 394/3/6 382/3/6 400/3/6
f 399/2/6 394/2/6 400/2/6
f 395/3/6 396/3/6 401/3/6
f 397/3/6 398/3/6 401/3/6
f 396/3/6 397/3/6 401/3/6
f 401/3/6 398/3/6 402/3/6
f 392/3/6 386/3/6 403/3/6
f 386/3/6 378/3/6 403/3/6
f 391/3/6 392/3/6 403/3/6
f 403/3/6 378/3/6 404/3/6
f 401/2/6 402/2/6 405/2/6
f 395/3/6 401/3/6 405/3/6
f 402/3/6 398/3/6 406/3/6
f 405/2/6 402/2/6 406/2/6
f 403/2/6 404/2/6 407/2/6
f 391/3/6 403/3/6 407/3/6
f 404/3/6 378/3/6 408/3/6
f 407/2/6 404/2/6 408/2/6
f 311/2/6 379/2/6 409/2/6
f 379/3/6 399/3/6 409/3/6
f 399/3/6 400/3/6 409/3/6
f 409/3/6 400/3/6 410/3/6
f 400/3/6 382/3/6 411/3/6
f 410/3/6 400/3/6 411/3/6
f 382/2/6 395/2/6 412/2/6
f 411/3/6 382/3/6 412/3/6
f 395/3/6 405/3/6 413/3/6
f 412/2/6 395/2/6 413/2/6
f 405/3/6 406/3/6 413/3/6
f 413/3/6 406/3/6 414/3/6
f 406/3/6 398/3/6 415/3/6
f 414/3/6 406/3/6 415/3/6
f 398/2/6 391/2/6 416/2/6
f 415/3/6 398/3/6 416/3/6
f 410/3/6 411/3/6 417/3/6
f 409/2/6 410/2/6 417/2/6
f 417/3/6 411/3/6 418/3/6
f 418/3/6 411/3/6 419/3/6
f 411/2/6 412/2/6 420/2/6
f 419/3/6 411/3/6 420/3/6
f 413/2/6 414/2/6 420/2/6
f 412/2/6 413/2/6 420/2/6
f 414/3/6 415/3/6 421/3/6
f 420/2/6 414/2/6 421/2/6
f 421/3/6 415/3/6 422/3/6
f 422/3/6 415/3/6 423/3/6
f 415/2/6 416/2/6 424/2/6
f 423/3/6 415/3/6 424/3/6
f 416/2/6 391/2/6 425/2/6
f 424/2/6 416/2/6 425/2/6
f 407/3/6 408/3/6 425/3/6
f 391/3/6 407/3/6 425/3/6
f 425/3/6 408/3/6 426/3/6
f 418/3/6 419/3/6 427/3/6
f 417/2/6 418/2/6 427/2/6
f 427/3/6 419/3/6 428/3/6
f 428/3/6 419/3/6 429/3/6
f 421/2/6 422/2/6 430/2/6
f 429/3/6 419/3/6 430/3/6
f 420/2/6 421/2/6 430/2/6
f 419/2/6 420/2/6 430/2/6
f 422/3/6 423/3/6 431/3/6
f 430/2/6 422/2/6 431/2/6
f 423/2/6 424/2/6 432/2/6
f 431/3/6 423/3/6 432/3/6
f 425/2/6 426/2/6 432/2/6
f 424/2/6 425/2/6 432/2/6
f 426/3/6 408/3/6 433/3/6
f 432/2/6 426/2/6 433/2/6
f 433/3/6 408/3/6 434/3/6
f 428/3/6 429/3/6 435/3/6
f 427/2/6 428/2/6 435/2/6
f 430/2/6 431/2/6 436/2/6
f 435/3/6 429/3/6 436/3/6
f 431/2/6 432/2/6 436/2/6
f 432/2/6 433/2/6 436/2/6
f 433/2/6 434/2/6 436/2/6
f 429/2/6 430/2/6 436/2/6
f 434/3/6 408/3/6 437/3/6
f 436/2/6 434/2/6 437/2/6
f 437/3/6 408/3/6 438/3/6
f 408/3/6 378/3/6 439/3/6
f 438/3/6 408/3/6 439/3/6
f 439/3/6 378/3/6 440/3/6
f 437/2/6 438/2/6 441/2/6
f 435/2/6 436/2/6 441/2/6
f 436/2/6 437/2/6 441/2/6
f 438/3/6 439/3/6 441/3/6
f 439/2/6 440/2/6 442/2/6
f 441/3/6 439/3/6 442/3/6
f 435/2/6 441/2/6 443/2/6
f 441/2/6 442/2/6 443/2/6
f 443/2/6 442/2/6 444/2/6
f 435/2/6 443/2/6 445/2/6
f 443/3/6 444/3/6 446/3/6
f 445/2/6 443/2/6 446/2/6
f 444/2/6 442/2/6 447/2/6
f 446/3/6 444/3/6 447/3/6
f 447/2/6 442/2/6 448/2/6
f 435/2/6 445/2/6 449/2/6
f 445/3/6 446/3/6 450/3/6
f 449/2/6 445/2/6 450/2/6
f 446/3/6 447/3/6 450/3/6
f 447/3/6 448/3/6 450/3/6
f 448/2/6 442/2/6 451/2/6
f 450/3/6 448/3/6 451/3/6
f 451/2/6 442/2/6 452/2/6
f 435/2/6 449/2/6 453/2/6
f 449/3/6 450/3/6 454/3/6
f 453/2/6 449/2/6 454/2/6
f 450/3/6 451/3/6 454/3/6
f 451/3/6 452/3/6 454/3/6
f 452/2/6 442/2/6 455/2/6
f 454/3/6 452/3/6 455/3/6
f 455/2/6 442/2/6 456/2/6
f 435/2/6 453/2/6 457/2/6
f 453/3/6 454/3/6 458/3/6
f 457/2/6 453/2/6 458/2/6
f 454/3/6 455/3/6 458/3/6
f 455/3/6 456/3/6 458/3/6
f 456/2/6 442/2/6 459/2/6
f 458/3/6 456/3/6 459/3/6
f 459/2/6 442/2/6 460/2/6
f 435/2/6 457/2/6 461/2/6
f 457/3/6 458/3/6 462/3/6
f 461/2/6 457/2/6 462/2/6
f 458/3/6 459/3/6 462/3/6
f 459/3/6 460/3/6 462/3/6
f 460/2/6 442/2/6 463/2/6
f 462/3/6 460/3/6 463/3/6
f 463/2/6 442/2/6 464/2/6
f 435/2/6 461/2/6 465/2/6
f 461/3/6 462/3/6 466/3/6
f 465/2/6 461/2/6 466/2/6
f 462/3/6 463/3/6 466/3/6
f 463/3/6 464/3/6 466/3/6
f 464/2/6 442/2/6 467/2/6
f 466/3/6 464/3/6 467/3/6
f 467/2/6 442/2/6 468/2/6
f 465/3/6 466/3/6 469/3/6
f 466/3/6 467/3/6 469/3/6
f 467/3/6 468/3/6 469/3/6
f 469/3/6 468/3/6 470/3/6
f 465/3/6 469/3/6 471/3/6
f 469/2/6 470/2/6 471/2/6
f 470/3/6 468/3/6 472/3/6
f 471/2/6 470/2/6 472/2/6
f 427/2/6 435/2/6 473/2/6
f 311/2/6 409/2/6 473/2/6
f 303/2/6 311/2/6 473/2/6
f 89/2/6 303/2/6 473/2/6
f 417/2/6 427/2/6 473/2/6
f 435/2/6 465/2/6 473/2/6
f 409/2/6 417/2/6 473/2/6
f 473/2/6 465/2/6 474/2/6
f 471/3/6 472/3/6 475/3/6
f 474/2/6 465/2/6 475/2/6
f 465/3/6 471/3/6 475/3/6
f 475/3/6 472/3/6 476/3/6
f 472/3/6 468/3/6 477/3/6
f 476/3/6 472/3/6 477/3/6
f 468/2/6 442/2/6 478/2/6
f 477/3/6 468/3/6 478/3/6
f 83/2/6 89/2/6 479/2/6
f 89/2/6 473/2/6 479/2/6
f 473/3/6 474/3/6 480/3/6
f 479/2/6 473/2/6 480/2/6
f 475/2/6 476/2/6 481/2/6
f 480/3/6 474/3/6 481/3/6
f 474/2/6 475/2/6 481/2/6
f 481/2/6 476/2/6 482/2/6
f 41/2/6 83/2/6 483/2/6
f 83/2/6 479/2/6 483/2/6
f 479/3/6 480/3/6 484/3/6
f 483/2/6 479/2/6 484/2/6
f 481/3/6 482/3/6 484/3/6
f 480/3/6 481/3/6 484/3/6
f 482/2/6 476/2/6 485/2/6
f 484/3/6 482/3/6 485/3/6
f 485/2/6 476/2/6 486/2/6
f 476/3/6 477/3/6 487/3/6
f 486/2/6 476/2/6 487/2/6
f 487/3/6 477/3/6 488/3/6
f 488/3/6 477/3/6 489/3/6
f 477/2/6 478/2/6 490/2/6
f 489/3/6 477/3/6 490/3/6
f 41/2/6 483/2/6 491/2/6
f 483/3/6 484/3/6 492/3/6
f 491/2/6 483/2/6 492/2/6
f 485/3/6 486/3/6 492/3/6
f 484/3/6 485/3/6 492/3/6
f 487/2/6 488/2/6 493/2/6
f 492/3/6 486/3/6 493/3/6
f 486/2/6 487/2/6 493/2/6
f 493/2/6 488/2/6 494/2/6
f 488/3/6 489/3/6 495/3/6
f 494/2/6 488/2/6 495/2/6
f 495/3/6 489/3/6 496/3/6
f 496/3/6 489/3/6 497/3/6
f 489/2/6 490/2/6 498/2/6
f 497/3/6 489/3/6 498/3/6
f 496/3/6 497/3/6 499/3/6
f 494/2/6 495/2/6 499/2/6
f 495/2/6 496/2/6 499/2/6
f 499/3/6 497/3/6 500/3/6
f 500/3/6 497/3/6 501/3/6
f 497/2/6 498/2/6 502/2/6
f 501/3/6 497/3/6 502/3/6
f 493/3/6 494/3/6 503/3/6
f 491/3/6 492/3/6 503/3/6
f 492/3/6 493/3/6 503/3/6
f 503/3/6 494/3/6 504/3/6
f 499/2/6 500/2/6 505/2/6
f 500/3/6 501/3/6 505/3/6
f 505/3/6 501/3/6 506/3/6
f 506/3/6 501/3/6 507/3/6
f 501/2/6 502/2/6 508/2/6
f 507/3/6 501/3/6 508/3/6
f 503/2/6 504/2/6 509/2/6
f 491/3/6 503/3/6 509/3/6
f 504/3/6 494/3/6 510/3/6
f 509/2/6 504/2/6 510/2/6
f 506/3/6 507/3/6 511/3/6
f 505/2/6 506/2/6 511/2/6
f 511/3/6 507/3/6 512/3/6
f 512/3/6 507/3/6 513/3/6
f 507/2/6 508/2/6 514/2/6
f 513/3/6 507/3/6 514/3/6
f 512/3/6 513/3/6 515/3/6
f 511/2/6 512/2/6 515/2/6
f 513/2/6 514/2/6 516/2/6
f 515/3/6 513/3/6 516/3/6
f 491/3/6 509/3/6 517/3/6
f 509/3/6 510/3/6 517/3/6
f 517/3/6 510/3/6 518/3/6
f 510/3/6 494/3/6 519/3/6
f 518/3/6 510/3/6 519/3/6
f 494/2/6 499/2/6 520/2/6
f 519/3/6 494/3/6 520/3/6
f 499/2/6 505/2/6 520/2/6
f 515/2/6 516/2/6 520/2/6
f 511/2/6 515/2/6 520/2/6
f 505/2/6 511/2/6 520/2/6
f 517/2/6 518/2/6 521/2/6
f 518/3/6 519/3/6 521/3/6
f 521/3/6 519/3/6 522/3/6
f 522/3/6 519/3/6 523/3/6
f 519/2/6 520/2/6 524/2/6
f 523/3/6 519/3/6 524/3/6
f 522/3/6 523/3/6 525/3/6
f 521/2/6 522/2/6 525/2/6
f 525/3/6 523/3/6 526/3/6
f 526/3/6 523/3/6 527/3/6
f 523/2/6 524/2/6 528/2/6
f 527/3/6 523/3/6 528/3/6
f 526/3/6 527/3/6 529/3/6
f 525/2/6 526/2/6 529/2/6
f 527/2/6 528/2/6 530/2/6
f 529/3/6 527/3/6 530/3/6
f 517/2/6 521/2/6 531/2/6
f 521/2/6 525/2/6 531/2/6
f 529/2/6 530/2/6 531/2/6
f 525/2/6 529/2/6 531/2/6
f 478/2/6 442/2/6 532/2/6
f 531/2/6 530/2/6 532/2/6
f 490/2/6 478/2/6 532/2/6
f 528/2/6 524/2/6 532/2/6
f 530/2/6 528/2/6 532/2/6
f 498/2/6 490/2/6 532/2/6
f 514/2/6 508/2/6 532/2/6
f 524/2/6 520/2/6 532/2/6
f 508/2/6 502/2/6 532/2/6
f 516/2/6 514/2/6 532/2/6
f 520/2/6 516/2/6 532/2/6
f 442/2/6 440/2/6 532/2/6
f 502/2/6 498/2/6 532/2/6
