# MagicaVoxel @ Ephtracy

# material
mtllib tre1.mtl
usemtl palette

# normals
vn -1 0 0
vn 1 0 0
vn 0 0 1
vn 0 0 -1
vn 0 -1 0
vn 0 1 0

# texcoords
vt 0.00195313 0.5
vt 0.0332031 0.5

# verts
v -10.5 10 10.5
v -10.5 10 -10.5
v -10.5 36 10.5
v -10.5 36 -10.5
v -4.5 0 3.5
v -4.5 0 -1.5
v -4.5 6 3.5
v -4.5 6 -1.5
v -3.5 0 -1.5
v -3.5 0 -4.5
v -3.5 6 2.5
v -3.5 6 -1.5
v -3.5 10 2.5
v -3.5 10 -4.5
v 0.5 0 3.5
v 0.5 0 2.5
v 0.5 6 3.5
v 0.5 6 2.5
v 3.5 0 2.5
v 3.5 0 -4.5
v 3.5 10 2.5
v 3.5 10 -4.5
v 10.5 10 10.5
v 10.5 10 -10.5
v 10.5 36 10.5
v 10.5 36 -10.5
v -10.5 10 10.5
v -10.5 36 10.5
v 10.5 10 10.5
v 10.5 36 10.5
v -4.5 0 3.5
v -4.5 6 3.5
v 0.5 0 3.5
v 0.5 6 3.5
v -3.5 6 2.5
v -3.5 10 2.5
v 0.5 0 2.5
v 0.5 6 2.5
v 3.5 0 2.5
v 3.5 10 2.5
v -4.5 0 -1.5
v -4.5 6 -1.5
v -3.5 0 -1.5
v -3.5 6 -1.5
v -3.5 0 -4.5
v -3.5 10 -4.5
v 3.5 0 -4.5
v 3.5 10 -4.5
v -10.5 10 -10.5
v -10.5 36 -10.5
v 10.5 10 -10.5
v 10.5 36 -10.5
v -4.5 0 3.5
v 0.5 0 3.5
v 0.5 0 2.5
v 3.5 0 2.5
v -4.5 0 -1.5
v -3.5 0 -1.5
v -3.5 0 -4.5
v 3.5 0 -4.5
v -10.5 10 10.5
v 10.5 10 10.5
v -3.5 10 2.5
v 3.5 10 2.5
v -3.5 10 -4.5
v 3.5 10 -4.5
v -10.5 10 -10.5
v 10.5 10 -10.5
v -4.5 6 3.5
v 0.5 6 3.5
v -3.5 6 2.5
v 0.5 6 2.5
v -4.5 6 -1.5
v -3.5 6 -1.5
v -10.5 36 10.5
v 10.5 36 10.5
v -10.5 36 -10.5
v 10.5 36 -10.5

# faces
f 3/2/1 2/2/1 1/2/1
f 4/2/1 2/2/1 3/2/1
f 7/1/1 6/1/1 5/1/1
f 8/1/1 6/1/1 7/1/1
f 12/1/1 10/1/1 9/1/1
f 13/1/1 12/1/1 11/1/1
f 14/1/1 10/1/1 12/1/1
f 14/1/1 12/1/1 13/1/1
f 15/1/2 16/1/2 17/1/2
f 17/1/2 16/1/2 18/1/2
f 19/1/2 20/1/2 21/1/2
f 21/1/2 20/1/2 22/1/2
f 23/2/2 24/2/2 25/2/2
f 25/2/2 24/2/2 26/2/2
f 29/2/3 28/2/3 27/2/3
f 30/2/3 28/2/3 29/2/3
f 33/1/3 32/1/3 31/1/3
f 34/1/3 32/1/3 33/1/3
f 38/1/3 36/1/3 35/1/3
f 39/1/3 38/1/3 37/1/3
f 40/1/3 36/1/3 38/1/3
f 40/1/3 38/1/3 39/1/3
f 41/1/4 42/1/4 43/1/4
f 43/1/4 42/1/4 44/1/4
f 45/1/4 46/1/4 47/1/4
f 47/1/4 46/1/4 48/1/4
f 49/2/4 50/2/4 51/2/4
f 51/2/4 50/2/4 52/2/4
f 55/1/5 54/1/5 53/1/5
f 57/1/5 55/1/5 53/1/5
f 57/1/5 56/1/5 55/1/5
f 58/1/5 56/1/5 57/1/5
f 59/1/5 56/1/5 58/1/5
f 60/1/5 56/1/5 59/1/5
f 63/2/5 62/2/5 61/2/5
f 64/2/5 62/2/5 63/2/5
f 65/2/5 63/2/5 61/2/5
f 66/2/5 62/2/5 64/2/5
f 67/2/5 65/2/5 61/2/5
f 67/2/5 66/2/5 65/2/5
f 68/2/5 62/2/5 66/2/5
f 68/2/5 66/2/5 67/2/5
f 69/1/6 70/1/6 71/1/6
f 71/1/6 70/1/6 72/1/6
f 69/1/6 71/1/6 73/1/6
f 73/1/6 71/1/6 74/1/6
f 75/2/6 76/2/6 77/2/6
f 77/2/6 76/2/6 78/2/6
